tezt/_regressions/007.007-PsDELPH1.vote.listings.out

./tezos-codec encode 007-PsDELPH1.vote.listings from '[
  {
    "pkh": "tz1KqTpEZ7Yob7QbPE4Hy4Wo8fHG8LhKxZSx",
    "rolls": 20115
  },
  {
    "pkh": "tz1gjaF81ZRRvdzjobyfVNsAeSC6PScjfQwN",
    "rolls": 9000
  }
]'
000000320002298c03ed7d454a101eb7022bc95f7e5f41ac7800004e9300e7670f32038107a59a2b9cfefae36ea21f5aa63c00002328

./tezos-codec decode 007-PsDELPH1.vote.listings from 000000320002298c03ed7d454a101eb7022bc95f7e5f41ac7800004e9300e7670f32038107a59a2b9cfefae36ea21f5aa63c00002328
[ { "pkh": "tz1KqTpEZ7Yob7QbPE4Hy4Wo8fHG8LhKxZSx", "rolls": 20115 },
  { "pkh": "tz1gjaF81ZRRvdzjobyfVNsAeSC6PScjfQwN", "rolls": 9000 } ]
