tezt/_regressions/007.007-PsDELPH1.gas.cost.out

./tezos-codec encode 007-PsDELPH1.gas.cost from '"8920392083423078"'
a6fd9d9694c3d81f

./tezos-codec decode 007-PsDELPH1.gas.cost from a6fd9d9694c3d81f
"8920392083423078"

./tezos-codec encode 007-PsDELPH1.gas.cost from '"0"'
00

./tezos-codec decode 007-PsDELPH1.gas.cost from 00
"0"
