tezt/_regressions/007.007-PsDELPH1.gas.out

./tezos-codec encode 007-PsDELPH1.gas from '"1238"'
009613

./tezos-codec decode 007-PsDELPH1.gas from 009613
"1238"

./tezos-codec encode 007-PsDELPH1.gas from '"unaccounted"'
01

./tezos-codec decode 007-PsDELPH1.gas from 01
"unaccounted"

./tezos-codec encode 007-PsDELPH1.gas from '"0"'
0000

./tezos-codec decode 007-PsDELPH1.gas from 0000
"0"
